com\grokonez\jwtauthentication\security\jwt\JwtAuthEntryPoint.class
com\grokonez\jwtauthentication\message\response\ResponseMessage.class
com\grokonez\jwtauthentication\repository\MovieRepository.class
com\grokonez\jwtauthentication\model\Role.class
com\grokonez\jwtauthentication\controller\TestRestAPIs.class
com\grokonez\jwtauthentication\security\services\UserPrinciple.class
com\grokonez\jwtauthentication\controller\AuthRestAPIs.class
com\grokonez\jwtauthentication\model\RoleName.class
com\grokonez\jwtauthentication\security\jwt\JwtAuthTokenFilter.class
com\grokonez\jwtauthentication\model\MovieDto.class
com\grokonez\jwtauthentication\message\response\JwtResponse.class
com\grokonez\jwtauthentication\repository\RoleRepository.class
com\grokonez\jwtauthentication\repository\UserRepository.class
com\grokonez\jwtauthentication\model\ApiResponse.class
com\grokonez\jwtauthentication\message\request\SignUpForm.class
com\grokonez\jwtauthentication\security\jwt\JwtProvider.class
com\grokonez\jwtauthentication\model\User.class
com\grokonez\jwtauthentication\exception\ResourceNotFoundException.class
com\grokonez\jwtauthentication\security\services\MovieService.class
com\grokonez\jwtauthentication\security\services\UserDetailsServiceImpl.class
com\grokonez\jwtauthentication\controller\MovieController.class
com\grokonez\jwtauthentication\security\services\MovieServiceImpl.class
com\grokonez\jwtauthentication\model\Movie.class
com\grokonez\jwtauthentication\SpringBootJwtAuthenticationApplication.class
com\grokonez\jwtauthentication\message\request\LoginForm.class
com\grokonez\jwtauthentication\security\WebSecurityConfig.class
